{
  "search_metadata": {
    "id": "search_16dWXw4JOrIOblAQ0vqoKNGl",
    "status": "Success",
    "created_at": "2026-07-21T00:11:46Z",
    "request_time_taken": 1.12,
    "parsing_time_taken": 0.0,
    "total_time_taken": 1.12,
    "request_url": "https://www.tripadvisor.com/Search?q=Four+Seasons+Hotel+Buenos+Aires&ssrc=a&geo=1&offset=0&limit=30",
    "html_url": "https://www.searchapi.io/api/v1/searches/search_16dWXw4JOrIOblAQ0vqoKNGl.html",
    "json_url": "https://www.searchapi.io/api/v1/searches/search_16dWXw4JOrIOblAQ0vqoKNGl"
  },
  "search_parameters": {
    "engine": "tripadvisor",
    "tripadvisor_domain": "tripadvisor.com",
    "q": "Four Seasons Hotel Buenos Aires",
    "category": "places",
    "page": 1
  },
  "search_information": {
    "total_results": 2000
  },
  "pagination": {
    "current": 1,
    "next": 2,
    "total_pages": 67
  },
  "place_results": [
    {
      "position": 1,
      "place_id": 302496,
      "title": "Four Seasons Hotel Buenos Aires",
      "type": "Hotel",
      "link": "https://www.tripadvisor.com/Hotel_Review-g312741-d302496-Reviews-Four_Seasons_Hotel_Buenos_Aires-Buenos_Aires_Capital_Federal_District.html",
      "description": "Set in the exclusive Recoleta neighbourhood, Four Seasons is a combination of an early-20th-century mansion and a contemporary high-rise, offering the best of modern comfort with European-style glamour. Meet up with colleagues and friends over cocktails at Pony Line and dry-aged steaks at Elena, or enjoy a local tradition - Sunday barbecue - in our secret garden.",
      "rating": 4.7,
      "reviews": 2278,
      "mentions": 258,
      "review_snippet": "We had an absolutely wonderful stay at the Four Seasons Hotel Buenos Aires",
      "review_snippet_highlighted_words": [
        "Four",
        "Seasons",
        "Hotel",
        "Buenos",
        "Aires"
      ],
      "location": "Buenos Aires, Argentina",
      "thumbnail": {
        "link": "https://dynamic-media-cdn.tripadvisor.com/media/photo-o/2c/01/31/05/alzaga-unzue-suite.jpg",
        "width": 5616,
        "height": 3744
      }
    },
    {
      "position": 2,
      "place_id": 1991395,
      "title": "La Mansión - Four Seasons",
      "type": "Restaurant",
      "link": "https://www.tripadvisor.com/Restaurant_Review-g312741-d1991395-Reviews-La_Mansion_Four_Seasons-Buenos_Aires_Capital_Federal_District.html",
      "description": "When we went to the Four Season hotel to ask about the brunch they told us to keep walking on Posadas Street for a few metres to reach the \"La Mansión\". So we did and entered a place showing this exact name. It being part of the Four Seasons hotel. You have a forum on this topic:",
      "rating": 4.5,
      "reviews": 98,
      "mentions": 1,
      "location": "Buenos Aires, Argentina",
      "thumbnail": {
        "link": "https://dynamic-media-cdn.tripadvisor.com/media/photo-o/08/e2/26/6d/photo0jpg.jpg",
        "width": 1536,
        "height": 2048
      }
    },
    {
      "position": 3,
      "place_id": 275507,
      "title": "Four Seasons Hotel Prague",
      "type": "Hotel",
      "link": "https://www.tripadvisor.com/Hotel_Review-g274707-d275507-Reviews-Four_Seasons_Hotel_Prague-Prague_Bohemia.html",
      "description": "There's a certain magic in the air here that flows effortlessly through Old Town Square, onto Charles Bridge, over the Vltava and all the way up the tallest spires of Prague Castle - and that's just what you can see from Four Seasons Hotel Prague, the only Forbes Five-Star Hotel in Prague and the Czech Republic. Centuries of wonder fill our walls, letting you trace the history of the city from the Baroque era to the neoclassical to modern day. When you stay with us, you open the door to a vibrant and unexpected experience that mirrors the city itself.",
      "rating": 4.8,
      "reviews": 2443,
      "mentions": 1,
      "location": "Prague, Czech Republic",
      "thumbnail": {
        "link": "https://dynamic-media-cdn.tripadvisor.com/media/photo-o/2c/36/85/a0/miru-rooftop-terrace.jpg",
        "width": 5569,
        "height": 3674
      }
    },
    {
      "position": 4,
      "place_id": 6755777,
      "title": "Four Seasons Hotel Moscow",
      "type": "Hotel",
      "link": "https://www.tripadvisor.com/Hotel_Review-g298484-d6755777-Reviews-Four_Seasons_Hotel_Moscow-Moscow_Central_Russia.html",
      "rating": 4.6,
      "reviews": 797,
      "location": "Moscow, Russia",
      "thumbnail": {
        "link": "https://dynamic-media-cdn.tripadvisor.com/media/photo-o/11/5d/59/86/exterior--v17631841.jpg",
        "width": 2600,
        "height": 1733
      }
    },
    {
      "position": 5,
      "place_id": 188975,
      "title": "Four Seasons Hotel George V, Paris",
      "type": "Hotel",
      "link": "https://www.tripadvisor.com/Hotel_Review-g187147-d188975-Reviews-Four_Seasons_Hotel_George_V_Paris-Paris_Ile_de_France.html",
      "rating": 4.7,
      "reviews": 3353,
      "location": "Paris, Ile-de-France, France",
      "thumbnail": {
        "link": "https://dynamic-media-cdn.tripadvisor.com/media/photo-o/33/36/38/e0/four-seasons-hotel-george.jpg",
        "width": 1924,
        "height": 1280
      }
    },
    {
      "position": 6,
      "place_id": 91674,
      "title": "Four Seasons Hotel Las Vegas",
      "type": "Hotel",
      "link": "https://www.tripadvisor.com/Hotel_Review-g45963-d91674-Reviews-Four_Seasons_Hotel_Las_Vegas-Las_Vegas_Nevada.html",
      "description": "Located adjacent to Mandalay Resort & Casino, discover one of the only non-gaming and non-smoking hotels on the Las Vegas Strip. Four Seasons Las Vegas is a tranquil Five Diamond oasis with a Forbes Five-Star Spa and offers the best of both worlds: serenity in a resort-like setting paired with the energy and nightlife of one of the greatest entertainment destinations. Just outside the city, experience close-by natural wonders, including the Grand Canyon and Red Rock National Conservation Area.",
      "rating": 4.7,
      "reviews": 5795,
      "mentions": 1,
      "location": "Las Vegas, Nevada",
      "thumbnail": {
        "link": "https://dynamic-media-cdn.tripadvisor.com/media/photo-o/08/5f/47/bf/pool.jpg",
        "width": 1693,
        "height": 1280
      }
    },
    {
      "position": 7,
      "place_id": 302766,
      "title": "Four Seasons Hotel The Westcliff, Johannesburg",
      "type": "Hotel",
      "link": "https://www.tripadvisor.com/Hotel_Review-g312578-d302766-Reviews-Four_Seasons_Hotel_The_Westcliff_Johannesburg-Johannesburg_Greater_Johannesburg_Gauteng.html",
      "description": "High up on the rocky Witwatersrand is where you'll find us. Despite being in the middle of South Africa's largest city, our Westcliff Hotel feels like a chic hillside village, with nine sun-splashed villas woven with courtyards, fountains and gardens. Take a ride up our glass elevator to meet friends for seasonally inspired dishes at Flames, visit our destination day spa that captures the serenity of the region with its nature-inspired treatments, or simply step out onto your room's balcony to enjoy a quiet moment as you admire the endless treetops that stretch out before you.",
      "rating": 4.5,
      "reviews": 1125,
      "mentions": 1,
      "location": "Johannesburg, South Africa",
      "thumbnail": {
        "link": "https://dynamic-media-cdn.tripadvisor.com/media/photo-o/2c/2e/96/8a/jbg-exterior.jpg",
        "width": 1918,
        "height": 1280
      }
    },
    {
      "position": 8,
      "place_id": 1023989,
      "title": "Hotel Buenos Aires",
      "type": "Hotel",
      "link": "https://www.tripadvisor.com/Hotel_Review-g635538-d1023989-Reviews-Hotel_Buenos_Aires-Santa_Teresa_Province_of_Puntarenas.html",
      "description": "Finding an ideal quaint hotel in Santa Teresa does not have to be difficult. Welcome to Hotel Buenos Aires, a nice option for travelers like you.\nHotel Buenos Aires offers guests an array of room amenities including a minibar, a refrigerator, and air conditioning, and getting online is possible, as free wifi is available.\nThe hotel offers beach chairs and a sun terrace, to make your visit even more pleasant. The property also features a pool and an on-site restaurant. Guests arriving by vehicle have access to free parking.\nDuring your visit, be sure to check out one of Santa Teresa's popular shawarma restaurants such as Zula Restaurant and Burger Rancho, all a short distance from Hotel Buenos Aires.\nHotel Buenos Aires looks forward to welcoming you on your visit to Santa Teresa.\n",
      "rating": 4.9,
      "reviews": 318,
      "location": "Santa Teresa, Costa Rica",
      "thumbnail": {
        "link": "https://dynamic-media-cdn.tripadvisor.com/media/photo-o/19/ff/de/83/hotel-buenos-aires.jpg",
        "width": 2337,
        "height": 2337
      }
    }
  ]
}
